R Data Analysis
…
R Data Analysis

Andrew Banks

5/17/18

Intro

By the time a country is well developed, its growth in population can change dramatically. What features have strong relations with population growth? How would I go about testing that?

Before starting any data science project, the first thing we have to do is is gather and understand the data we are working with. In this case, I will be using data for from The world bank world development indicators database downloaded as a csv. http://databank.worldbank.org/data/reports.aspx?source=world-development-indicators# 2 files were provided, one that provides a description to generated column names and the other the main dataset.Both csvs were renamed before reading. The main data used in this project was national income, population growth by percent, total population, access to water, electricity access, and access to the internet. The countries eventually focused on were Russia, China, United States, India, United Kingdom, Japan, and Nigeria. The data spanned from 1993 to 2018.

In order to read this data, we need to access the csv. I can use the read_csv function from readr. how well can statistics like water access, gross national income, and other stuff correlate with carbon dioxiode damage, 20$ of environmental damage per tone. use hypothesis test to show it.

## # A tibble: 2,909 x 29
##    `Country Name` `Country Code` `Series Name`               `Series Code`
##    <chr>          <chr>          <chr>                       <chr>        
##  1 Afghanistan    AFG            Access to electricity (% o~ EG.ELC.ACCS.~
##  2 Afghanistan    AFG            Individuals using the Inte~ IT.NET.USER.~
##  3 Afghanistan    AFG            People using at least basi~ SH.H2O.BASW.~
##  4 Afghanistan    AFG            Population ages 0-14, total SP.POP.0014.~
##  5 Afghanistan    AFG            Population ages 15-64, tot~ SP.POP.1564.~
##  6 Afghanistan    AFG            Population, total           SP.POP.TOTL  
##  7 Afghanistan    AFG            Population growth (annual ~ SP.POP.GROW  
##  8 Afghanistan    AFG            Population density (people~ EN.POP.DNST  
##  9 Afghanistan    AFG            Children in employment, wo~ SL.TLF.0714.~
## 10 Afghanistan    AFG            Adjusted net national inco~ NY.ADJ.NNTY.~
## # ... with 2,899 more rows, and 25 more variables: `1993 [YR1993]` <chr>,
## #   `1994 [YR1994]` <chr>, `1995 [YR1995]` <chr>, `1996 [YR1996]` <chr>,
## #   `1997 [YR1997]` <chr>, `1998 [YR1998]` <chr>, `1999 [YR1999]` <chr>,
## #   `2000 [YR2000]` <chr>, `2001 [YR2001]` <chr>, `2002 [YR2002]` <chr>,
## #   `2003 [YR2003]` <chr>, `2004 [YR2004]` <chr>, `2005 [YR2005]` <chr>,
## #   `2006 [YR2006]` <chr>, `2007 [YR2007]` <chr>, `2008 [YR2008]` <chr>,
## #   `2009 [YR2009]` <chr>, `2010 [YR2010]` <chr>, `2011 [YR2011]` <chr>,
## #   `2012 [YR2012]` <chr>, `2013 [YR2013]` <chr>, `2014 [YR2014]` <chr>,
## #   `2015 [YR2015]` <chr>, `2016 [YR2016]` <chr>, `2017 [YR2017]` <chr>
…
populationTotal <- populationTotal %>% gather(Year, TotalPopulation, -CountryName, -Country)%>%
  mutate("Year" = as.integer(substring(Year, 1, 4))) %>%
  mutate("TotalPopulation" = as.integer(TotalPopulation))

populationGrowth <- populationGrowth %>% gather(Year, PopulationGrowthPercentage, -CountryName, -Country)%>%
  mutate("Year" = as.integer(substring(Year, 1, 4))) %>%
  mutate("PopulationGrowthPercentage" = as.double(PopulationGrowthPercentage))

nationalIncome <- nationalIncome %>% gather(Year, Income, -CountryName, -Country)%>%
  mutate("Year" = as.integer(substring(Year, 1, 4))) %>%
  mutate("Income" = as.double(Income))

nationalIncome

## # A tibble: 168 x 4
##    CountryName        Country  Year        Income
##    <chr>              <chr>   <int>         <dbl>
##  1 China              CHN      1993  387536869441
##  2 India              IND      1993  240182678180
##  3 Japan              JPN      1993 3538627989994
##  4 Nigeria            NGA      1993    7043400778
##  5 Russian Federation RUS      1993  224535397025
##  6 United Kingdom     GBR      1993  915282745680
##  7 United States      USA      1993 5710970251154
##  8 China              CHN      1994  516751956720
##  9 India              IND      1994  282489402555
## 10 Japan              JPN      1994 3871546107816
## # ... with 158 more rows
…
-Access to the Internet

-Total Population

Because the tidy tables from earlier were all based on year and country, I was able to join them all seamlessly.

combinedTidyDF = nationalIncome %>%
  inner_join(populationTotal)  %>%
  inner_join(populationGrowth)   %>%
  inner_join(waterAccess)  %>%
  inner_join(internetAccess) 
combinedTidyDF

## # A tibble: 168 x 8
##    CountryName   Country  Year   Income TotalPopulation PopulationGrowthP~
##    <chr>         <chr>   <int>    <dbl>           <int>              <dbl>
##  1 China         CHN      1993  3.88e11      1178440000              1.15 
##  2 India         IND      1993  2.40e11       924057817              1.97 
##  3 Japan         JPN      1993  3.54e12       124536000              0.247
##  4 Nigeria       NGA      1993  7.04e 9       102761737              2.50 
##  5 Russian Fede~ RUS      1993  2.25e11       148520000             -0.114
##  6 United Kingd~ GBR      1993  9.15e11        57718614              0.240
##  7 United States USA      1993  5.71e12       259919000              1.32 
##  8 China         CHN      1994  5.17e11      1191835000              1.13 
##  9 India         IND      1994  2.82e11       942204249              1.94 
## 10 Japan         JPN      1994  3.87e12       124961000              0.341
## # ... with 158 more rows, and 2 more variables:
## #   WaterAccessPercentage <dbl>, InternetAccessPercentage <dbl>
…
